{
    "jet_collection": "AntiKt4EMPFlowJets",
    "calibration": {
        "file": "fragments/pflow-calibration.json"
    },
    "selection": {
        "file": "fragments/pflow-selection.json"
    },
    "vertex_collection": "PrimaryVertices",
    "dl2_configs": [
        {
            "nn_file_path": "BTagging/20220509/gn1lep/antikt4empflow/network.onnx",
            "engine": "gnn"
        }
    ],
    "variables": {
        "file": "fragments/pflow-variables-all.json",
        "jet": {
            "ints": [
                "n_tracks"
            ]
        },
        "btagging": {
            "floats": [
                "GN120220509_pb",
                "GN120220509_pc",
                "GN120220509_pu",
                "GN1Lep20220509_pb",
                "GN1Lep20220509_pc",
                "GN1Lep20220509_pu",
                "GN2v00_pb",
                "GN2v00_pc",
                "GN2v00_pu"
            ]
        },
        "default_mapping": {
            "file": "fragments/default-mapping.json"
        }
    },
    "tracks": [
        {
            "n_to_save": 40,
            "selection": {
                "file": "fragments/r22default-track-cuts.json"
            },
            "sort_order": "d0_significance",
            "btagging_link": "",
            "input_name": "TracksForBTagging",
            "output_name": "tracks",
            "variables": {
                "file": "fragments/pflow-track-variables-all.json"
            },
            "ip_prefix": "btagIp_"
        },
        {
            "n_to_save": 40,
            "selection": {
                "file": "fragments/r22default-track-cuts.json"
            },
            "sort_order": "d0_significance",
            "btagging_link": "",
            "input_name": "nonConstituentTracks",
            "output_name": "tracks_loose",
            "variables": {
                "file": "fragments/pflow-track-variables-all.json"
            },
            "ip_prefix": "btagIp_"
        }
    ],
    "flow": [{
        "type": "flow",
        "output_name": "neutral",
        "n_to_save": 40,
        "accessor": "neutralConstituentLinks",
        "variables": {
            "customs": [
                "flow_pt",
                "flow_energy",
                "flow_deta",
                "flow_dphi",
                "flow_dr"
            ]
        },
        "edm_names": {
            "flow_pt": "pt",
            "flow_energy": "energy",
            "flow_deta": "deta",
            "flow_dphi": "dphi",
            "flow_dr": "dr"
        }
    },
    {
        "type": "flow",
        "output_name": "charged",
        "n_to_save": 40,
        "accessor": "chargedConstituentLinks",
        "variables": {
            "customs": [
                "flow_pt",
                "flow_energy",
                "flow_deta",
                "flow_dphi",
                "flow_dr"
            ]
        },
        "edm_names": {
            "flow_pt": "pt",
            "flow_energy": "energy",
            "flow_deta": "deta",
            "flow_dphi": "dphi",
            "flow_dr": "dr"
        },
        "associations": {
            "track": {
                "variables": {
                    "file": "fragments/pflow-track-variables.json",
                    "ints": [
                        "ftagTruthOriginLabel",
                        "ftagTruthTypeLabel",
                        "ftagTruthVertexIndex"
                    ],
                    "chars": [
                        "leptonID"
                    ]
                },
                "edm_names": {
                    "ip_prefix": "btagIp_"
                }
            }
        }
    }],
    "truths": [
        {
            "file": "fragments/overlap-leptons-TRUTH3.json"
        },
        {
            "association": {
                "file": "fragments/baseline-truth-kinematics.json",
                "particles": "promptLepton"
            },
            "decorate_summary": true
        }
    ],
    "decorate": {
        "jet_aug": false,
        "btag_jes": true,
        "soft_muon": false,
        "track_sv_info": true,
        "lepton_decay_label": true
    },
    "btagging_link": "btaggingLink"
}
